<?xml version="1.0" encoding="UTF-8"?>
<dia:diagram xmlns:dia="http://www.lysator.liu.se/~alla/dia/">
  <dia:diagramdata>
    <dia:attribute name="background">
      <dia:color val="#ffffff"/>
    </dia:attribute>
    <dia:attribute name="pagebreak">
      <dia:color val="#000099"/>
    </dia:attribute>
    <dia:attribute name="paper">
      <dia:composite type="paper">
        <dia:attribute name="name">
          <dia:string>#A4#</dia:string>
        </dia:attribute>
        <dia:attribute name="tmargin">
          <dia:real val="2.8222000598907471"/>
        </dia:attribute>
        <dia:attribute name="bmargin">
          <dia:real val="2.8222000598907471"/>
        </dia:attribute>
        <dia:attribute name="lmargin">
          <dia:real val="2.8222000598907471"/>
        </dia:attribute>
        <dia:attribute name="rmargin">
          <dia:real val="2.8222000598907471"/>
        </dia:attribute>
        <dia:attribute name="is_portrait">
          <dia:boolean val="true"/>
        </dia:attribute>
        <dia:attribute name="scaling">
          <dia:real val="1"/>
        </dia:attribute>
        <dia:attribute name="fitto">
          <dia:boolean val="false"/>
        </dia:attribute>
      </dia:composite>
    </dia:attribute>
    <dia:attribute name="grid">
      <dia:composite type="grid">
        <dia:attribute name="width_x">
          <dia:real val="1"/>
        </dia:attribute>
        <dia:attribute name="width_y">
          <dia:real val="1"/>
        </dia:attribute>
        <dia:attribute name="visible_x">
          <dia:int val="1"/>
        </dia:attribute>
        <dia:attribute name="visible_y">
          <dia:int val="1"/>
        </dia:attribute>
        <dia:composite type="color"/>
      </dia:composite>
    </dia:attribute>
    <dia:attribute name="color">
      <dia:color val="#d8e5e5"/>
    </dia:attribute>
    <dia:attribute name="guides">
      <dia:composite type="guides">
        <dia:attribute name="hguides"/>
        <dia:attribute name="vguides"/>
      </dia:composite>
    </dia:attribute>
  </dia:diagramdata>
  <dia:layer name="Background" visible="true" active="true">
    <dia:object type="Flowchart - Box" version="0" id="O0">
      <dia:attribute name="obj_pos">
        <dia:point val="5.665,2.855"/>
      </dia:attribute>
      <dia:attribute name="obj_bb">
        <dia:rectangle val="5.615,2.805;34.715,32.905"/>
      </dia:attribute>
      <dia:attribute name="elem_corner">
        <dia:point val="5.665,2.855"/>
      </dia:attribute>
      <dia:attribute name="elem_width">
        <dia:real val="29"/>
      </dia:attribute>
      <dia:attribute name="elem_height">
        <dia:real val="30"/>
      </dia:attribute>
      <dia:attribute name="show_background">
        <dia:boolean val="true"/>
      </dia:attribute>
      <dia:attribute name="padding">
        <dia:real val="0.5"/>
      </dia:attribute>
      <dia:attribute name="text">
        <dia:composite type="text">
          <dia:attribute name="string">
            <dia:string>##</dia:string>
          </dia:attribute>
          <dia:attribute name="font">
            <dia:font family="sans" style="0" name="Helvetica"/>
          </dia:attribute>
          <dia:attribute name="height">
            <dia:real val="0.80000000000000004"/>
          </dia:attribute>
          <dia:attribute name="pos">
            <dia:point val="20.165,18.05"/>
          </dia:attribute>
          <dia:attribute name="color">
            <dia:color val="#000000"/>
          </dia:attribute>
          <dia:attribute name="alignment">
            <dia:enum val="1"/>
          </dia:attribute>
        </dia:composite>
      </dia:attribute>
    </dia:object>
    <dia:object type="Flowchart - Box" version="0" id="O1">
      <dia:attribute name="obj_pos">
        <dia:point val="8.665,5.855"/>
      </dia:attribute>
      <dia:attribute name="obj_bb">
        <dia:rectangle val="8.615,5.805;12.715,8.905"/>
      </dia:attribute>
      <dia:attribute name="elem_corner">
        <dia:point val="8.665,5.855"/>
      </dia:attribute>
      <dia:attribute name="elem_width">
        <dia:real val="4"/>
      </dia:attribute>
      <dia:attribute name="elem_height">
        <dia:real val="3"/>
      </dia:attribute>
      <dia:attribute name="border_width">
        <dia:real val="0.10000000149011612"/>
      </dia:attribute>
      <dia:attribute name="show_background">
        <dia:boolean val="true"/>
      </dia:attribute>
      <dia:attribute name="padding">
        <dia:real val="0.5"/>
      </dia:attribute>
      <dia:attribute name="text">
        <dia:composite type="text">
          <dia:attribute name="string">
            <dia:string>#NVIC#</dia:string>
          </dia:attribute>
          <dia:attribute name="font">
            <dia:font family="sans" style="80" name="Helvetica-Bold"/>
          </dia:attribute>
          <dia:attribute name="height">
            <dia:real val="0.80000000000000004"/>
          </dia:attribute>
          <dia:attribute name="pos">
            <dia:point val="10.665,7.55"/>
          </dia:attribute>
          <dia:attribute name="color">
            <dia:color val="#000000"/>
          </dia:attribute>
          <dia:attribute name="alignment">
            <dia:enum val="1"/>
          </dia:attribute>
        </dia:composite>
      </dia:attribute>
    </dia:object>
    <dia:object type="Flowchart - Box" version="0" id="O2">
      <dia:attribute name="obj_pos">
        <dia:point val="27.665,8.855"/>
      </dia:attribute>
      <dia:attribute name="obj_bb">
        <dia:rectangle val="27.615,8.805;31.715,11.905"/>
      </dia:attribute>
      <dia:attribute name="elem_corner">
        <dia:point val="27.665,8.855"/>
      </dia:attribute>
      <dia:attribute name="elem_width">
        <dia:real val="4"/>
      </dia:attribute>
      <dia:attribute name="elem_height">
        <dia:real val="3"/>
      </dia:attribute>
      <dia:attribute name="border_width">
        <dia:real val="0.10000000149011612"/>
      </dia:attribute>
      <dia:attribute name="show_background">
        <dia:boolean val="true"/>
      </dia:attribute>
      <dia:attribute name="padding">
        <dia:real val="0.5"/>
      </dia:attribute>
      <dia:attribute name="text">
        <dia:composite type="text">
          <dia:attribute name="string">
            <dia:string>#debug#</dia:string>
          </dia:attribute>
          <dia:attribute name="font">
            <dia:font family="sans" style="80" name="Helvetica-Bold"/>
          </dia:attribute>
          <dia:attribute name="height">
            <dia:real val="0.80000000000000004"/>
          </dia:attribute>
          <dia:attribute name="pos">
            <dia:point val="29.665,10.55"/>
          </dia:attribute>
          <dia:attribute name="color">
            <dia:color val="#000000"/>
          </dia:attribute>
          <dia:attribute name="alignment">
            <dia:enum val="1"/>
          </dia:attribute>
        </dia:composite>
      </dia:attribute>
    </dia:object>
    <dia:object type="Flowchart - Box" version="0" id="O3">
      <dia:attribute name="obj_pos">
        <dia:point val="27.665,5.855"/>
      </dia:attribute>
      <dia:attribute name="obj_bb">
        <dia:rectangle val="27.615,5.805;31.715,8.905"/>
      </dia:attribute>
      <dia:attribute name="elem_corner">
        <dia:point val="27.665,5.855"/>
      </dia:attribute>
      <dia:attribute name="elem_width">
        <dia:real val="4"/>
      </dia:attribute>
      <dia:attribute name="elem_height">
        <dia:real val="3"/>
      </dia:attribute>
      <dia:attribute name="border_width">
        <dia:real val="0.10000000149011612"/>
      </dia:attribute>
      <dia:attribute name="show_background">
        <dia:boolean val="true"/>
      </dia:attribute>
      <dia:attribute name="padding">
        <dia:real val="0.5"/>
      </dia:attribute>
      <dia:attribute name="text">
        <dia:composite type="text">
          <dia:attribute name="string">
            <dia:string>#FPU#</dia:string>
          </dia:attribute>
          <dia:attribute name="font">
            <dia:font family="sans" style="80" name="Helvetica-Bold"/>
          </dia:attribute>
          <dia:attribute name="height">
            <dia:real val="0.80000000000000004"/>
          </dia:attribute>
          <dia:attribute name="pos">
            <dia:point val="29.665,7.55"/>
          </dia:attribute>
          <dia:attribute name="color">
            <dia:color val="#000000"/>
          </dia:attribute>
          <dia:attribute name="alignment">
            <dia:enum val="1"/>
          </dia:attribute>
        </dia:composite>
      </dia:attribute>
    </dia:object>
    <dia:object type="Flowchart - Box" version="0" id="O4">
      <dia:attribute name="obj_pos">
        <dia:point val="18.665,18.855"/>
      </dia:attribute>
      <dia:attribute name="obj_bb">
        <dia:rectangle val="18.615,18.805;21.715,21.905"/>
      </dia:attribute>
      <dia:attribute name="elem_corner">
        <dia:point val="18.665,18.855"/>
      </dia:attribute>
      <dia:attribute name="elem_width">
        <dia:real val="3"/>
      </dia:attribute>
      <dia:attribute name="elem_height">
        <dia:real val="3"/>
      </dia:attribute>
      <dia:attribute name="border_width">
        <dia:real val="0.10000000149011612"/>
      </dia:attribute>
      <dia:attribute name="inner_color">
        <dia:color val="#ffc0cb"/>
      </dia:attribute>
      <dia:attribute name="show_background">
        <dia:boolean val="true"/>
      </dia:attribute>
      <dia:attribute name="padding">
        <dia:real val="0.5"/>
      </dia:attribute>
      <dia:attribute name="text">
        <dia:composite type="text">
          <dia:attribute name="string">
            <dia:string>#MPU#</dia:string>
          </dia:attribute>
          <dia:attribute name="font">
            <dia:font family="sans" style="80" name="Helvetica-Bold"/>
          </dia:attribute>
          <dia:attribute name="height">
            <dia:real val="0.80000000000000004"/>
          </dia:attribute>
          <dia:attribute name="pos">
            <dia:point val="20.165,20.55"/>
          </dia:attribute>
          <dia:attribute name="color">
            <dia:color val="#000000"/>
          </dia:attribute>
          <dia:attribute name="alignment">
            <dia:enum val="1"/>
          </dia:attribute>
        </dia:composite>
      </dia:attribute>
    </dia:object>
    <dia:object type="Flowchart - Box" version="0" id="O5">
      <dia:attribute name="obj_pos">
        <dia:point val="12.665,5.805"/>
      </dia:attribute>
      <dia:attribute name="obj_bb">
        <dia:rectangle val="12.615,5.755;27.715,18.255"/>
      </dia:attribute>
      <dia:attribute name="elem_corner">
        <dia:point val="12.665,5.805"/>
      </dia:attribute>
      <dia:attribute name="elem_width">
        <dia:real val="15"/>
      </dia:attribute>
      <dia:attribute name="elem_height">
        <dia:real val="12.400000002980233"/>
      </dia:attribute>
      <dia:attribute name="border_width">
        <dia:real val="0.10000000149011612"/>
      </dia:attribute>
      <dia:attribute name="show_background">
        <dia:boolean val="true"/>
      </dia:attribute>
      <dia:attribute name="padding">
        <dia:real val="0.5"/>
      </dia:attribute>
      <dia:attribute name="text">
        <dia:composite type="text">
          <dia:attribute name="string">
            <dia:string>#











Cortex M4
CPU#</dia:string>
          </dia:attribute>
          <dia:attribute name="font">
            <dia:font family="sans" style="80" name="Helvetica-Bold"/>
          </dia:attribute>
          <dia:attribute name="height">
            <dia:real val="0.80000000000000004"/>
          </dia:attribute>
          <dia:attribute name="pos">
            <dia:point val="20.165,7"/>
          </dia:attribute>
          <dia:attribute name="color">
            <dia:color val="#000000"/>
          </dia:attribute>
          <dia:attribute name="alignment">
            <dia:enum val="1"/>
          </dia:attribute>
        </dia:composite>
      </dia:attribute>
    </dia:object>
    <dia:object type="Flowchart - Box" version="0" id="O6">
      <dia:attribute name="obj_pos">
        <dia:point val="13.665,7.005"/>
      </dia:attribute>
      <dia:attribute name="obj_bb">
        <dia:rectangle val="13.615,6.955;26.715,12.055"/>
      </dia:attribute>
      <dia:attribute name="elem_corner">
        <dia:point val="13.665,7.005"/>
      </dia:attribute>
      <dia:attribute name="elem_width">
        <dia:real val="13"/>
      </dia:attribute>
      <dia:attribute name="elem_height">
        <dia:real val="5"/>
      </dia:attribute>
      <dia:attribute name="border_width">
        <dia:real val="0.10000000149011612"/>
      </dia:attribute>
      <dia:attribute name="show_background">
        <dia:boolean val="true"/>
      </dia:attribute>
      <dia:attribute name="padding">
        <dia:real val="0.5"/>
      </dia:attribute>
      <dia:attribute name="text">
        <dia:composite type="text">
          <dia:attribute name="string">
            <dia:string>#


3-Stage pipeline#</dia:string>
          </dia:attribute>
          <dia:attribute name="font">
            <dia:font family="sans" style="80" name="Helvetica-Bold"/>
          </dia:attribute>
          <dia:attribute name="height">
            <dia:real val="0.80000000000000004"/>
          </dia:attribute>
          <dia:attribute name="pos">
            <dia:point val="20.165,8.5"/>
          </dia:attribute>
          <dia:attribute name="color">
            <dia:color val="#000000"/>
          </dia:attribute>
          <dia:attribute name="alignment">
            <dia:enum val="1"/>
          </dia:attribute>
        </dia:composite>
      </dia:attribute>
    </dia:object>
    <dia:group>
      <dia:object type="Flowchart - Box" version="0" id="O7">
        <dia:attribute name="obj_pos">
          <dia:point val="14.665,8.005"/>
        </dia:attribute>
        <dia:attribute name="obj_bb">
          <dia:rectangle val="14.615,7.955;17.715,10.055"/>
        </dia:attribute>
        <dia:attribute name="elem_corner">
          <dia:point val="14.665,8.005"/>
        </dia:attribute>
        <dia:attribute name="elem_width">
          <dia:real val="3"/>
        </dia:attribute>
        <dia:attribute name="elem_height">
          <dia:real val="2.0000000029802321"/>
        </dia:attribute>
        <dia:attribute name="border_width">
          <dia:real val="0.10000000149011612"/>
        </dia:attribute>
        <dia:attribute name="show_background">
          <dia:boolean val="true"/>
        </dia:attribute>
        <dia:attribute name="padding">
          <dia:real val="0.5"/>
        </dia:attribute>
        <dia:attribute name="text">
          <dia:composite type="text">
            <dia:attribute name="string">
              <dia:string>#Fetch#</dia:string>
            </dia:attribute>
            <dia:attribute name="font">
              <dia:font family="sans" style="0" name="Helvetica"/>
            </dia:attribute>
            <dia:attribute name="height">
              <dia:real val="0.80000000000000004"/>
            </dia:attribute>
            <dia:attribute name="pos">
              <dia:point val="16.165,9.2"/>
            </dia:attribute>
            <dia:attribute name="color">
              <dia:color val="#000000"/>
            </dia:attribute>
            <dia:attribute name="alignment">
              <dia:enum val="1"/>
            </dia:attribute>
          </dia:composite>
        </dia:attribute>
      </dia:object>
      <dia:object type="Flowchart - Box" version="0" id="O8">
        <dia:attribute name="obj_pos">
          <dia:point val="17.665,8.005"/>
        </dia:attribute>
        <dia:attribute name="obj_bb">
          <dia:rectangle val="17.615,7.955;21.715,10.055"/>
        </dia:attribute>
        <dia:attribute name="elem_corner">
          <dia:point val="17.665,8.005"/>
        </dia:attribute>
        <dia:attribute name="elem_width">
          <dia:real val="4"/>
        </dia:attribute>
        <dia:attribute name="elem_height">
          <dia:real val="2.0000000029802321"/>
        </dia:attribute>
        <dia:attribute name="border_width">
          <dia:real val="0.10000000149011612"/>
        </dia:attribute>
        <dia:attribute name="show_background">
          <dia:boolean val="true"/>
        </dia:attribute>
        <dia:attribute name="padding">
          <dia:real val="0.5"/>
        </dia:attribute>
        <dia:attribute name="text">
          <dia:composite type="text">
            <dia:attribute name="string">
              <dia:string>#Decode#</dia:string>
            </dia:attribute>
            <dia:attribute name="font">
              <dia:font family="sans" style="0" name="Helvetica"/>
            </dia:attribute>
            <dia:attribute name="height">
              <dia:real val="0.80000000000000004"/>
            </dia:attribute>
            <dia:attribute name="pos">
              <dia:point val="19.665,9.2"/>
            </dia:attribute>
            <dia:attribute name="color">
              <dia:color val="#000000"/>
            </dia:attribute>
            <dia:attribute name="alignment">
              <dia:enum val="1"/>
            </dia:attribute>
          </dia:composite>
        </dia:attribute>
      </dia:object>
      <dia:object type="Flowchart - Box" version="0" id="O9">
        <dia:attribute name="obj_pos">
          <dia:point val="21.6525,8.005"/>
        </dia:attribute>
        <dia:attribute name="obj_bb">
          <dia:rectangle val="21.6025,7.955;25.465,10.055"/>
        </dia:attribute>
        <dia:attribute name="elem_corner">
          <dia:point val="21.6525,8.005"/>
        </dia:attribute>
        <dia:attribute name="elem_width">
          <dia:real val="3.7625000029802322"/>
        </dia:attribute>
        <dia:attribute name="elem_height">
          <dia:real val="2.0000000029802321"/>
        </dia:attribute>
        <dia:attribute name="border_width">
          <dia:real val="0.10000000149011612"/>
        </dia:attribute>
        <dia:attribute name="show_background">
          <dia:boolean val="true"/>
        </dia:attribute>
        <dia:attribute name="padding">
          <dia:real val="0.5"/>
        </dia:attribute>
        <dia:attribute name="text">
          <dia:composite type="text">
            <dia:attribute name="string">
              <dia:string>#Execute#</dia:string>
            </dia:attribute>
            <dia:attribute name="font">
              <dia:font family="sans" style="0" name="Helvetica"/>
            </dia:attribute>
            <dia:attribute name="height">
              <dia:real val="0.80000000000000004"/>
            </dia:attribute>
            <dia:attribute name="pos">
              <dia:point val="23.5337,9.2"/>
            </dia:attribute>
            <dia:attribute name="color">
              <dia:color val="#000000"/>
            </dia:attribute>
            <dia:attribute name="alignment">
              <dia:enum val="1"/>
            </dia:attribute>
          </dia:composite>
        </dia:attribute>
      </dia:object>
    </dia:group>
    <dia:object type="Flowchart - Box" version="0" id="O10">
      <dia:attribute name="obj_pos">
        <dia:point val="13.665,12.005"/>
      </dia:attribute>
      <dia:attribute name="obj_bb">
        <dia:rectangle val="13.615,11.955;26.715,14.055"/>
      </dia:attribute>
      <dia:attribute name="elem_corner">
        <dia:point val="13.665,12.005"/>
      </dia:attribute>
      <dia:attribute name="elem_width">
        <dia:real val="13"/>
      </dia:attribute>
      <dia:attribute name="elem_height">
        <dia:real val="2.0000000029802321"/>
      </dia:attribute>
      <dia:attribute name="border_width">
        <dia:real val="0.10000000149011612"/>
      </dia:attribute>
      <dia:attribute name="show_background">
        <dia:boolean val="true"/>
      </dia:attribute>
      <dia:attribute name="padding">
        <dia:real val="0.5"/>
      </dia:attribute>
      <dia:attribute name="text">
        <dia:composite type="text">
          <dia:attribute name="string">
            <dia:string>#Register File#</dia:string>
          </dia:attribute>
          <dia:attribute name="font">
            <dia:font family="sans" style="0" name="Helvetica"/>
          </dia:attribute>
          <dia:attribute name="height">
            <dia:real val="0.80000000000000004"/>
          </dia:attribute>
          <dia:attribute name="pos">
            <dia:point val="20.165,13.2"/>
          </dia:attribute>
          <dia:attribute name="color">
            <dia:color val="#000000"/>
          </dia:attribute>
          <dia:attribute name="alignment">
            <dia:enum val="1"/>
          </dia:attribute>
        </dia:composite>
      </dia:attribute>
    </dia:object>
    <dia:object type="Flowchart - Box" version="0" id="O11">
      <dia:attribute name="obj_pos">
        <dia:point val="13.665,14.005"/>
      </dia:attribute>
      <dia:attribute name="obj_bb">
        <dia:rectangle val="13.615,13.955;26.715,16.055"/>
      </dia:attribute>
      <dia:attribute name="elem_corner">
        <dia:point val="13.665,14.005"/>
      </dia:attribute>
      <dia:attribute name="elem_width">
        <dia:real val="13"/>
      </dia:attribute>
      <dia:attribute name="elem_height">
        <dia:real val="2.0000000029802321"/>
      </dia:attribute>
      <dia:attribute name="border_width">
        <dia:real val="0.10000000149011612"/>
      </dia:attribute>
      <dia:attribute name="show_background">
        <dia:boolean val="true"/>
      </dia:attribute>
      <dia:attribute name="padding">
        <dia:real val="0.5"/>
      </dia:attribute>
      <dia:attribute name="text">
        <dia:composite type="text">
          <dia:attribute name="string">
            <dia:string>#Memory Interface#</dia:string>
          </dia:attribute>
          <dia:attribute name="font">
            <dia:font family="sans" style="0" name="Helvetica"/>
          </dia:attribute>
          <dia:attribute name="height">
            <dia:real val="0.80000000000000004"/>
          </dia:attribute>
          <dia:attribute name="pos">
            <dia:point val="20.165,15.2"/>
          </dia:attribute>
          <dia:attribute name="color">
            <dia:color val="#000000"/>
          </dia:attribute>
          <dia:attribute name="alignment">
            <dia:enum val="1"/>
          </dia:attribute>
        </dia:composite>
      </dia:attribute>
    </dia:object>
    <dia:object type="Standard - Line" version="0" id="O12">
      <dia:attribute name="obj_pos">
        <dia:point val="16.915,16.005"/>
      </dia:attribute>
      <dia:attribute name="obj_bb">
        <dia:rectangle val="16.5532,15.955;17.2768,24.9668"/>
      </dia:attribute>
      <dia:attribute name="conn_endpoints">
        <dia:point val="16.915,16.005"/>
        <dia:point val="16.915,24.855"/>
      </dia:attribute>
      <dia:attribute name="numcp">
        <dia:int val="3"/>
      </dia:attribute>
      <dia:attribute name="end_arrow">
        <dia:enum val="22"/>
      </dia:attribute>
      <dia:attribute name="end_arrow_length">
        <dia:real val="0.5"/>
      </dia:attribute>
      <dia:attribute name="end_arrow_width">
        <dia:real val="0.5"/>
      </dia:attribute>
      <dia:connections>
        <dia:connection handle="1" to="O15" connection="1"/>
      </dia:connections>
    </dia:object>
    <dia:object type="Standard - Line" version="0" id="O13">
      <dia:attribute name="obj_pos">
        <dia:point val="23.415,16.005"/>
      </dia:attribute>
      <dia:attribute name="obj_bb">
        <dia:rectangle val="23.0532,15.955;23.7768,24.9668"/>
      </dia:attribute>
      <dia:attribute name="conn_endpoints">
        <dia:point val="23.415,16.005"/>
        <dia:point val="23.415,24.855"/>
      </dia:attribute>
      <dia:attribute name="numcp">
        <dia:int val="3"/>
      </dia:attribute>
      <dia:attribute name="end_arrow">
        <dia:enum val="22"/>
      </dia:attribute>
      <dia:attribute name="end_arrow_length">
        <dia:real val="0.5"/>
      </dia:attribute>
      <dia:attribute name="end_arrow_width">
        <dia:real val="0.5"/>
      </dia:attribute>
      <dia:connections>
        <dia:connection handle="1" to="O15" connection="3"/>
      </dia:connections>
    </dia:object>
    <dia:object type="Flowchart - Box" version="0" id="O14">
      <dia:attribute name="obj_pos">
        <dia:point val="8.665,8.855"/>
      </dia:attribute>
      <dia:attribute name="obj_bb">
        <dia:rectangle val="8.615,8.805;12.715,11.905"/>
      </dia:attribute>
      <dia:attribute name="elem_corner">
        <dia:point val="8.665,8.855"/>
      </dia:attribute>
      <dia:attribute name="elem_width">
        <dia:real val="4"/>
      </dia:attribute>
      <dia:attribute name="elem_height">
        <dia:real val="3"/>
      </dia:attribute>
      <dia:attribute name="border_width">
        <dia:real val="0.10000000149011612"/>
      </dia:attribute>
      <dia:attribute name="show_background">
        <dia:boolean val="true"/>
      </dia:attribute>
      <dia:attribute name="padding">
        <dia:real val="0.5"/>
      </dia:attribute>
      <dia:attribute name="text">
        <dia:composite type="text">
          <dia:attribute name="string">
            <dia:string>#sysTick#</dia:string>
          </dia:attribute>
          <dia:attribute name="font">
            <dia:font family="sans" style="80" name="Helvetica-Bold"/>
          </dia:attribute>
          <dia:attribute name="height">
            <dia:real val="0.80000000000000004"/>
          </dia:attribute>
          <dia:attribute name="pos">
            <dia:point val="10.665,10.55"/>
          </dia:attribute>
          <dia:attribute name="color">
            <dia:color val="#000000"/>
          </dia:attribute>
          <dia:attribute name="alignment">
            <dia:enum val="1"/>
          </dia:attribute>
        </dia:composite>
      </dia:attribute>
    </dia:object>
    <dia:object type="Flowchart - Box" version="0" id="O15">
      <dia:attribute name="obj_pos">
        <dia:point val="13.665,24.855"/>
      </dia:attribute>
      <dia:attribute name="obj_bb">
        <dia:rectangle val="13.615,24.805;26.715,26.905"/>
      </dia:attribute>
      <dia:attribute name="elem_corner">
        <dia:point val="13.665,24.855"/>
      </dia:attribute>
      <dia:attribute name="elem_width">
        <dia:real val="13"/>
      </dia:attribute>
      <dia:attribute name="elem_height">
        <dia:real val="2"/>
      </dia:attribute>
      <dia:attribute name="show_background">
        <dia:boolean val="true"/>
      </dia:attribute>
      <dia:attribute name="padding">
        <dia:real val="0.5"/>
      </dia:attribute>
      <dia:attribute name="text">
        <dia:composite type="text">
          <dia:attribute name="string">
            <dia:string>#Internal Interconnect#</dia:string>
          </dia:attribute>
          <dia:attribute name="font">
            <dia:font family="sans" style="0" name="Helvetica"/>
          </dia:attribute>
          <dia:attribute name="height">
            <dia:real val="0.80000000000000004"/>
          </dia:attribute>
          <dia:attribute name="pos">
            <dia:point val="20.165,26.05"/>
          </dia:attribute>
          <dia:attribute name="color">
            <dia:color val="#000000"/>
          </dia:attribute>
          <dia:attribute name="alignment">
            <dia:enum val="1"/>
          </dia:attribute>
        </dia:composite>
      </dia:attribute>
    </dia:object>
    <dia:object type="Standard - Line" version="0" id="O16">
      <dia:attribute name="obj_pos">
        <dia:point val="16.915,20.43"/>
      </dia:attribute>
      <dia:attribute name="obj_bb">
        <dia:rectangle val="16.8629,20.0245;18.7171,20.7605"/>
      </dia:attribute>
      <dia:attribute name="conn_endpoints">
        <dia:point val="16.915,20.43"/>
        <dia:point val="18.665,20.355"/>
      </dia:attribute>
      <dia:attribute name="numcp">
        <dia:int val="1"/>
      </dia:attribute>
      <dia:attribute name="start_arrow">
        <dia:enum val="22"/>
      </dia:attribute>
      <dia:attribute name="start_arrow_length">
        <dia:real val="0.5"/>
      </dia:attribute>
      <dia:attribute name="start_arrow_width">
        <dia:real val="0.5"/>
      </dia:attribute>
      <dia:attribute name="end_arrow">
        <dia:enum val="22"/>
      </dia:attribute>
      <dia:attribute name="end_arrow_length">
        <dia:real val="0.5"/>
      </dia:attribute>
      <dia:attribute name="end_arrow_width">
        <dia:real val="0.5"/>
      </dia:attribute>
      <dia:connections>
        <dia:connection handle="0" to="O12" connection="1"/>
        <dia:connection handle="1" to="O4" connection="7"/>
      </dia:connections>
    </dia:object>
    <dia:object type="Standard - Line" version="0" id="O17">
      <dia:attribute name="obj_pos">
        <dia:point val="21.665,20.355"/>
      </dia:attribute>
      <dia:attribute name="obj_bb">
        <dia:rectangle val="21.6129,20.0245;23.4671,20.7605"/>
      </dia:attribute>
      <dia:attribute name="conn_endpoints">
        <dia:point val="21.665,20.355"/>
        <dia:point val="23.415,20.43"/>
      </dia:attribute>
      <dia:attribute name="numcp">
        <dia:int val="1"/>
      </dia:attribute>
      <dia:attribute name="start_arrow">
        <dia:enum val="22"/>
      </dia:attribute>
      <dia:attribute name="start_arrow_length">
        <dia:real val="0.5"/>
      </dia:attribute>
      <dia:attribute name="start_arrow_width">
        <dia:real val="0.5"/>
      </dia:attribute>
      <dia:attribute name="end_arrow">
        <dia:enum val="22"/>
      </dia:attribute>
      <dia:attribute name="end_arrow_length">
        <dia:real val="0.5"/>
      </dia:attribute>
      <dia:attribute name="end_arrow_width">
        <dia:real val="0.5"/>
      </dia:attribute>
      <dia:connections>
        <dia:connection handle="0" to="O4" connection="8"/>
        <dia:connection handle="1" to="O13" connection="1"/>
      </dia:connections>
    </dia:object>
    <dia:object type="Standard - Line" version="0" id="O18">
      <dia:attribute name="obj_pos">
        <dia:point val="13.665,26.855"/>
      </dia:attribute>
      <dia:attribute name="obj_bb">
        <dia:rectangle val="13.615,26.805;26.715,26.905"/>
      </dia:attribute>
      <dia:attribute name="conn_endpoints">
        <dia:point val="13.665,26.855"/>
        <dia:point val="26.665,26.855"/>
      </dia:attribute>
      <dia:attribute name="numcp">
        <dia:int val="8"/>
      </dia:attribute>
      <dia:connections>
        <dia:connection handle="0" to="O15" connection="11"/>
        <dia:connection handle="1" to="O15" connection="15"/>
      </dia:connections>
    </dia:object>
    <dia:object type="Standard - Line" version="0" id="O19">
      <dia:attribute name="obj_pos">
        <dia:point val="16.5539,26.855"/>
      </dia:attribute>
      <dia:attribute name="obj_bb">
        <dia:rectangle val="16.129,26.8041;16.8525,31.128"/>
      </dia:attribute>
      <dia:attribute name="conn_endpoints">
        <dia:point val="16.5539,26.855"/>
        <dia:point val="16.4799,31.0162"/>
      </dia:attribute>
      <dia:attribute name="numcp">
        <dia:int val="1"/>
      </dia:attribute>
      <dia:attribute name="end_arrow">
        <dia:enum val="22"/>
      </dia:attribute>
      <dia:attribute name="end_arrow_length">
        <dia:real val="0.5"/>
      </dia:attribute>
      <dia:attribute name="end_arrow_width">
        <dia:real val="0.5"/>
      </dia:attribute>
      <dia:connections>
        <dia:connection handle="0" to="O18" connection="1"/>
      </dia:connections>
    </dia:object>
    <dia:object type="Standard - Line" version="0" id="O20">
      <dia:attribute name="obj_pos">
        <dia:point val="17.665,26.855"/>
      </dia:attribute>
      <dia:attribute name="obj_bb">
        <dia:rectangle val="17.2733,26.8046;17.9969,31.128"/>
      </dia:attribute>
      <dia:attribute name="conn_endpoints">
        <dia:point val="17.665,26.855"/>
        <dia:point val="17.6299,31.0162"/>
      </dia:attribute>
      <dia:attribute name="numcp">
        <dia:int val="1"/>
      </dia:attribute>
      <dia:attribute name="end_arrow">
        <dia:enum val="22"/>
      </dia:attribute>
      <dia:attribute name="end_arrow_length">
        <dia:real val="0.5"/>
      </dia:attribute>
      <dia:attribute name="end_arrow_width">
        <dia:real val="0.5"/>
      </dia:attribute>
    </dia:object>
    <dia:object type="Standard - Line" version="0" id="O21">
      <dia:attribute name="obj_pos">
        <dia:point val="22.3317,26.855"/>
      </dia:attribute>
      <dia:attribute name="obj_bb">
        <dia:rectangle val="21.9684,26.805;22.692,31.028"/>
      </dia:attribute>
      <dia:attribute name="conn_endpoints">
        <dia:point val="22.3317,26.855"/>
        <dia:point val="22.3299,30.9162"/>
      </dia:attribute>
      <dia:attribute name="numcp">
        <dia:int val="1"/>
      </dia:attribute>
      <dia:attribute name="end_arrow">
        <dia:enum val="22"/>
      </dia:attribute>
      <dia:attribute name="end_arrow_length">
        <dia:real val="0.5"/>
      </dia:attribute>
      <dia:attribute name="end_arrow_width">
        <dia:real val="0.5"/>
      </dia:attribute>
      <dia:connections>
        <dia:connection handle="0" to="O18" connection="5"/>
      </dia:connections>
    </dia:object>
    <dia:object type="Standard - Text" version="1" id="O22">
      <dia:attribute name="obj_pos">
        <dia:point val="32.9799,27.1162"/>
      </dia:attribute>
      <dia:attribute name="obj_bb">
        <dia:rectangle val="32.9799,26.5212;32.9799,27.2662"/>
      </dia:attribute>
      <dia:attribute name="text">
        <dia:composite type="text">
          <dia:attribute name="string">
            <dia:string>##</dia:string>
          </dia:attribute>
          <dia:attribute name="font">
            <dia:font family="sans" style="0" name="Helvetica"/>
          </dia:attribute>
          <dia:attribute name="height">
            <dia:real val="0.80000000000000004"/>
          </dia:attribute>
          <dia:attribute name="pos">
            <dia:point val="32.9799,27.1162"/>
          </dia:attribute>
          <dia:attribute name="color">
            <dia:color val="#000000"/>
          </dia:attribute>
          <dia:attribute name="alignment">
            <dia:enum val="0"/>
          </dia:attribute>
        </dia:composite>
      </dia:attribute>
      <dia:attribute name="valign">
        <dia:enum val="3"/>
      </dia:attribute>
    </dia:object>
    <dia:object type="Standard - Outline" version="0" id="O23">
      <dia:attribute name="obj_pos">
        <dia:point val="21.3299,31.1162"/>
      </dia:attribute>
      <dia:attribute name="obj_bb">
        <dia:rectangle val="21.3299,27.1707;21.9512,31.1162"/>
      </dia:attribute>
      <dia:attribute name="meta">
        <dia:composite type="dict"/>
      </dia:attribute>
      <dia:attribute name="name">
        <dia:string>#System-BUS#</dia:string>
      </dia:attribute>
      <dia:attribute name="rotation">
        <dia:real val="90"/>
      </dia:attribute>
      <dia:attribute name="text_font">
        <dia:font family="serif" style="0" name="Times-Roman"/>
      </dia:attribute>
      <dia:attribute name="text_height">
        <dia:real val="0.64134998608363958"/>
      </dia:attribute>
      <dia:attribute name="line_width">
        <dia:real val="1.1754943508222875e-38"/>
      </dia:attribute>
      <dia:attribute name="line_colour">
        <dia:color val="#000000"/>
      </dia:attribute>
      <dia:attribute name="fill_colour">
        <dia:color val="#000000"/>
      </dia:attribute>
      <dia:attribute name="show_background">
        <dia:boolean val="true"/>
      </dia:attribute>
    </dia:object>
    <dia:object type="Standard - Outline" version="0" id="O24">
      <dia:attribute name="obj_pos">
        <dia:point val="15.8449,29.3038"/>
      </dia:attribute>
      <dia:attribute name="obj_bb">
        <dia:rectangle val="15.8449,27.4712;16.3359,29.3038"/>
      </dia:attribute>
      <dia:attribute name="meta">
        <dia:composite type="dict"/>
      </dia:attribute>
      <dia:attribute name="name">
        <dia:string>#I-BUS#</dia:string>
      </dia:attribute>
      <dia:attribute name="rotation">
        <dia:real val="90"/>
      </dia:attribute>
      <dia:attribute name="text_font">
        <dia:font family="serif" style="0" name="Times-Roman"/>
      </dia:attribute>
      <dia:attribute name="text_height">
        <dia:real val="0.64134998608363958"/>
      </dia:attribute>
      <dia:attribute name="line_width">
        <dia:real val="1.1754943508222875e-38"/>
      </dia:attribute>
      <dia:attribute name="line_colour">
        <dia:color val="#000000"/>
      </dia:attribute>
      <dia:attribute name="fill_colour">
        <dia:color val="#000000"/>
      </dia:attribute>
      <dia:attribute name="show_background">
        <dia:boolean val="true"/>
      </dia:attribute>
    </dia:object>
    <dia:object type="Standard - Outline" version="0" id="O25">
      <dia:attribute name="obj_pos">
        <dia:point val="17.0099,29.7088"/>
      </dia:attribute>
      <dia:attribute name="obj_bb">
        <dia:rectangle val="17.0099,27.6153;17.5009,29.7088"/>
      </dia:attribute>
      <dia:attribute name="meta">
        <dia:composite type="dict"/>
      </dia:attribute>
      <dia:attribute name="name">
        <dia:string>#D-BUS#</dia:string>
      </dia:attribute>
      <dia:attribute name="rotation">
        <dia:real val="90"/>
      </dia:attribute>
      <dia:attribute name="text_font">
        <dia:font family="serif" style="0" name="Times-Roman"/>
      </dia:attribute>
      <dia:attribute name="text_height">
        <dia:real val="0.64134998608363958"/>
      </dia:attribute>
      <dia:attribute name="line_width">
        <dia:real val="1.1754943508222875e-38"/>
      </dia:attribute>
      <dia:attribute name="line_colour">
        <dia:color val="#000000"/>
      </dia:attribute>
      <dia:attribute name="fill_colour">
        <dia:color val="#000000"/>
      </dia:attribute>
      <dia:attribute name="show_background">
        <dia:boolean val="true"/>
      </dia:attribute>
    </dia:object>
    <dia:object type="Standard - Outline" version="0" id="O26">
      <dia:attribute name="obj_pos">
        <dia:point val="24.4749,30.0138"/>
      </dia:attribute>
      <dia:attribute name="obj_bb">
        <dia:rectangle val="24.4749,27.5715;24.9659,30.0138"/>
      </dia:attribute>
      <dia:attribute name="meta">
        <dia:composite type="dict"/>
      </dia:attribute>
      <dia:attribute name="name">
        <dia:string>#PP-BUS#</dia:string>
      </dia:attribute>
      <dia:attribute name="rotation">
        <dia:real val="90"/>
      </dia:attribute>
      <dia:attribute name="text_font">
        <dia:font family="serif" style="0" name="Times-Roman"/>
      </dia:attribute>
      <dia:attribute name="text_height">
        <dia:real val="0.64134998608363958"/>
      </dia:attribute>
      <dia:attribute name="line_width">
        <dia:real val="1.1754943508222875e-38"/>
      </dia:attribute>
      <dia:attribute name="line_colour">
        <dia:color val="#000000"/>
      </dia:attribute>
      <dia:attribute name="fill_colour">
        <dia:color val="#000000"/>
      </dia:attribute>
      <dia:attribute name="show_background">
        <dia:boolean val="true"/>
      </dia:attribute>
    </dia:object>
    <dia:object type="Flowchart - Box" version="0" id="O27">
      <dia:attribute name="obj_pos">
        <dia:point val="29.665,24.855"/>
      </dia:attribute>
      <dia:attribute name="obj_bb">
        <dia:rectangle val="29.615,24.805;32.715,26.905"/>
      </dia:attribute>
      <dia:attribute name="elem_corner">
        <dia:point val="29.665,24.855"/>
      </dia:attribute>
      <dia:attribute name="elem_width">
        <dia:real val="3"/>
      </dia:attribute>
      <dia:attribute name="elem_height">
        <dia:real val="2"/>
      </dia:attribute>
      <dia:attribute name="show_background">
        <dia:boolean val="true"/>
      </dia:attribute>
      <dia:attribute name="padding">
        <dia:real val="0.5"/>
      </dia:attribute>
      <dia:attribute name="text">
        <dia:composite type="text">
          <dia:attribute name="string">
            <dia:string>#DAP#</dia:string>
          </dia:attribute>
          <dia:attribute name="font">
            <dia:font family="sans" style="0" name="Helvetica"/>
          </dia:attribute>
          <dia:attribute name="height">
            <dia:real val="0.80000000000000004"/>
          </dia:attribute>
          <dia:attribute name="pos">
            <dia:point val="31.165,26.05"/>
          </dia:attribute>
          <dia:attribute name="color">
            <dia:color val="#000000"/>
          </dia:attribute>
          <dia:attribute name="alignment">
            <dia:enum val="1"/>
          </dia:attribute>
        </dia:composite>
      </dia:attribute>
    </dia:object>
    <dia:object type="Standard - Line" version="0" id="O28">
      <dia:attribute name="obj_pos">
        <dia:point val="26.665,25.855"/>
      </dia:attribute>
      <dia:attribute name="obj_bb">
        <dia:rectangle val="26.615,25.4932;29.7768,26.2168"/>
      </dia:attribute>
      <dia:attribute name="conn_endpoints">
        <dia:point val="26.665,25.855"/>
        <dia:point val="29.665,25.855"/>
      </dia:attribute>
      <dia:attribute name="numcp">
        <dia:int val="1"/>
      </dia:attribute>
      <dia:attribute name="end_arrow">
        <dia:enum val="22"/>
      </dia:attribute>
      <dia:attribute name="end_arrow_length">
        <dia:real val="0.5"/>
      </dia:attribute>
      <dia:attribute name="end_arrow_width">
        <dia:real val="0.5"/>
      </dia:attribute>
      <dia:connections>
        <dia:connection handle="0" to="O15" connection="8"/>
        <dia:connection handle="1" to="O27" connection="7"/>
      </dia:connections>
    </dia:object>
    <dia:object type="Standard - ZigZagLine" version="1" id="O29">
      <dia:attribute name="obj_pos">
        <dia:point val="23.7761,26.855"/>
      </dia:attribute>
      <dia:attribute name="obj_bb">
        <dia:rectangle val="23.7261,21.7432;29.2052,30.9924"/>
      </dia:attribute>
      <dia:attribute name="orth_points">
        <dia:point val="23.7761,26.855"/>
        <dia:point val="23.7761,30.9424"/>
        <dia:point val="28.8434,30.9424"/>
        <dia:point val="28.8434,21.855"/>
      </dia:attribute>
      <dia:attribute name="orth_orient">
        <dia:enum val="1"/>
        <dia:enum val="0"/>
        <dia:enum val="1"/>
      </dia:attribute>
      <dia:attribute name="autorouting">
        <dia:boolean val="false"/>
      </dia:attribute>
      <dia:attribute name="end_arrow">
        <dia:enum val="22"/>
      </dia:attribute>
      <dia:attribute name="end_arrow_length">
        <dia:real val="0.5"/>
      </dia:attribute>
      <dia:attribute name="end_arrow_width">
        <dia:real val="0.5"/>
      </dia:attribute>
      <dia:connections>
        <dia:connection handle="0" to="O18" connection="6"/>
      </dia:connections>
    </dia:object>
  </dia:layer>
</dia:diagram>
