<?xml version="1.0" encoding="UTF-8"?>
<dia:diagram xmlns:dia="http://www.lysator.liu.se/~alla/dia/">
  <dia:diagramdata>
    <dia:attribute name="background">
      <dia:color val="#ffffff"/>
    </dia:attribute>
    <dia:attribute name="pagebreak">
      <dia:color val="#000099"/>
    </dia:attribute>
    <dia:attribute name="paper">
      <dia:composite type="paper">
        <dia:attribute name="name">
          <dia:string>#A4#</dia:string>
        </dia:attribute>
        <dia:attribute name="tmargin">
          <dia:real val="2.8222000598907471"/>
        </dia:attribute>
        <dia:attribute name="bmargin">
          <dia:real val="2.8222000598907471"/>
        </dia:attribute>
        <dia:attribute name="lmargin">
          <dia:real val="2.8222000598907471"/>
        </dia:attribute>
        <dia:attribute name="rmargin">
          <dia:real val="2.8222000598907471"/>
        </dia:attribute>
        <dia:attribute name="is_portrait">
          <dia:boolean val="true"/>
        </dia:attribute>
        <dia:attribute name="scaling">
          <dia:real val="1"/>
        </dia:attribute>
        <dia:attribute name="fitto">
          <dia:boolean val="false"/>
        </dia:attribute>
      </dia:composite>
    </dia:attribute>
    <dia:attribute name="grid">
      <dia:composite type="grid">
        <dia:attribute name="width_x">
          <dia:real val="1"/>
        </dia:attribute>
        <dia:attribute name="width_y">
          <dia:real val="1"/>
        </dia:attribute>
        <dia:attribute name="visible_x">
          <dia:int val="1"/>
        </dia:attribute>
        <dia:attribute name="visible_y">
          <dia:int val="1"/>
        </dia:attribute>
        <dia:composite type="color"/>
      </dia:composite>
    </dia:attribute>
    <dia:attribute name="color">
      <dia:color val="#d8e5e5"/>
    </dia:attribute>
    <dia:attribute name="guides">
      <dia:composite type="guides">
        <dia:attribute name="hguides"/>
        <dia:attribute name="vguides"/>
      </dia:composite>
    </dia:attribute>
  </dia:diagramdata>
  <dia:layer name="Background" visible="true" active="true">
    <dia:object type="Flowchart - Box" version="0" id="O0">
      <dia:attribute name="obj_pos">
        <dia:point val="4,1.55"/>
      </dia:attribute>
      <dia:attribute name="obj_bb">
        <dia:rectangle val="3.95,1.5;56.05,25.05"/>
      </dia:attribute>
      <dia:attribute name="elem_corner">
        <dia:point val="4,1.55"/>
      </dia:attribute>
      <dia:attribute name="elem_width">
        <dia:real val="52"/>
      </dia:attribute>
      <dia:attribute name="elem_height">
        <dia:real val="23.449999999999999"/>
      </dia:attribute>
      <dia:attribute name="border_width">
        <dia:real val="0.10000000149011612"/>
      </dia:attribute>
      <dia:attribute name="show_background">
        <dia:boolean val="false"/>
      </dia:attribute>
      <dia:attribute name="padding">
        <dia:real val="0.5"/>
      </dia:attribute>
      <dia:attribute name="text">
        <dia:composite type="text">
          <dia:attribute name="string">
            <dia:string>##</dia:string>
          </dia:attribute>
          <dia:attribute name="font">
            <dia:font family="sans" style="0" name="Helvetica"/>
          </dia:attribute>
          <dia:attribute name="height">
            <dia:real val="0.80000000000000004"/>
          </dia:attribute>
          <dia:attribute name="pos">
            <dia:point val="30,13.47"/>
          </dia:attribute>
          <dia:attribute name="color">
            <dia:color val="#000000"/>
          </dia:attribute>
          <dia:attribute name="alignment">
            <dia:enum val="1"/>
          </dia:attribute>
        </dia:composite>
      </dia:attribute>
    </dia:object>
    <dia:object type="Flowchart - Box" version="0" id="O1">
      <dia:attribute name="obj_pos">
        <dia:point val="9,11.95"/>
      </dia:attribute>
      <dia:attribute name="obj_bb">
        <dia:rectangle val="8.95,11.9;55.2,15"/>
      </dia:attribute>
      <dia:attribute name="elem_corner">
        <dia:point val="9,11.95"/>
      </dia:attribute>
      <dia:attribute name="elem_width">
        <dia:real val="46.149999999999999"/>
      </dia:attribute>
      <dia:attribute name="elem_height">
        <dia:real val="3"/>
      </dia:attribute>
      <dia:attribute name="border_width">
        <dia:real val="0.10000000149011612"/>
      </dia:attribute>
      <dia:attribute name="show_background">
        <dia:boolean val="true"/>
      </dia:attribute>
      <dia:attribute name="padding">
        <dia:real val="0.5"/>
      </dia:attribute>
      <dia:attribute name="text">
        <dia:composite type="text">
          <dia:attribute name="string">
            <dia:string>#NIC 301#</dia:string>
          </dia:attribute>
          <dia:attribute name="font">
            <dia:font family="sans" style="80" name="Helvetica-Bold"/>
          </dia:attribute>
          <dia:attribute name="height">
            <dia:real val="0.80000000000000004"/>
          </dia:attribute>
          <dia:attribute name="pos">
            <dia:point val="32.075,13.645"/>
          </dia:attribute>
          <dia:attribute name="color">
            <dia:color val="#000000"/>
          </dia:attribute>
          <dia:attribute name="alignment">
            <dia:enum val="1"/>
          </dia:attribute>
        </dia:composite>
      </dia:attribute>
    </dia:object>
    <dia:object type="Standard - Line" version="0" id="O2">
      <dia:attribute name="obj_pos">
        <dia:point val="9,11.95"/>
      </dia:attribute>
      <dia:attribute name="obj_bb">
        <dia:rectangle val="8.95,11.9;55.2,12"/>
      </dia:attribute>
      <dia:attribute name="conn_endpoints">
        <dia:point val="9,11.95"/>
        <dia:point val="55.15,11.95"/>
      </dia:attribute>
      <dia:attribute name="numcp">
        <dia:int val="45"/>
      </dia:attribute>
      <dia:connections>
        <dia:connection handle="0" to="O1" connection="0"/>
        <dia:connection handle="1" to="O1" connection="4"/>
      </dia:connections>
    </dia:object>
    <dia:object type="Standard - Line" version="0" id="O3">
      <dia:attribute name="obj_pos">
        <dia:point val="9,14.95"/>
      </dia:attribute>
      <dia:attribute name="obj_bb">
        <dia:rectangle val="8.95,14.9;55.2,15"/>
      </dia:attribute>
      <dia:attribute name="conn_endpoints">
        <dia:point val="9,14.95"/>
        <dia:point val="55.15,14.95"/>
      </dia:attribute>
      <dia:attribute name="numcp">
        <dia:int val="14"/>
      </dia:attribute>
      <dia:connections>
        <dia:connection handle="0" to="O1" connection="11"/>
        <dia:connection handle="1" to="O1" connection="15"/>
      </dia:connections>
    </dia:object>
    <dia:object type="Standard - Text" version="1" id="O4">
      <dia:attribute name="obj_pos">
        <dia:point val="11,13"/>
      </dia:attribute>
      <dia:attribute name="obj_bb">
        <dia:rectangle val="11,12.405;12.0825,13.15"/>
      </dia:attribute>
      <dia:attribute name="text">
        <dia:composite type="text">
          <dia:attribute name="string">
            <dia:string>#M0#</dia:string>
          </dia:attribute>
          <dia:attribute name="font">
            <dia:font family="sans" style="80" name="Helvetica-Bold"/>
          </dia:attribute>
          <dia:attribute name="height">
            <dia:real val="0.80000000000000004"/>
          </dia:attribute>
          <dia:attribute name="pos">
            <dia:point val="11,13"/>
          </dia:attribute>
          <dia:attribute name="color">
            <dia:color val="#0000ff"/>
          </dia:attribute>
          <dia:attribute name="alignment">
            <dia:enum val="0"/>
          </dia:attribute>
        </dia:composite>
      </dia:attribute>
      <dia:attribute name="valign">
        <dia:enum val="3"/>
      </dia:attribute>
    </dia:object>
    <dia:object type="Standard - Text" version="1" id="O5">
      <dia:attribute name="obj_pos">
        <dia:point val="14,13"/>
      </dia:attribute>
      <dia:attribute name="obj_bb">
        <dia:rectangle val="14,12.405;15.0825,13.15"/>
      </dia:attribute>
      <dia:attribute name="text">
        <dia:composite type="text">
          <dia:attribute name="string">
            <dia:string>#M1#</dia:string>
          </dia:attribute>
          <dia:attribute name="font">
            <dia:font family="sans" style="80" name="Helvetica-Bold"/>
          </dia:attribute>
          <dia:attribute name="height">
            <dia:real val="0.80000000000000004"/>
          </dia:attribute>
          <dia:attribute name="pos">
            <dia:point val="14,13"/>
          </dia:attribute>
          <dia:attribute name="color">
            <dia:color val="#0000ff"/>
          </dia:attribute>
          <dia:attribute name="alignment">
            <dia:enum val="0"/>
          </dia:attribute>
        </dia:composite>
      </dia:attribute>
      <dia:attribute name="valign">
        <dia:enum val="3"/>
      </dia:attribute>
    </dia:object>
    <dia:object type="Standard - Line" version="0" id="O6">
      <dia:attribute name="obj_pos">
        <dia:point val="9,14.95"/>
      </dia:attribute>
      <dia:attribute name="obj_bb">
        <dia:rectangle val="8.95,14.9;55.2,15"/>
      </dia:attribute>
      <dia:attribute name="conn_endpoints">
        <dia:point val="9,14.95"/>
        <dia:point val="55.15,14.95"/>
      </dia:attribute>
      <dia:attribute name="numcp">
        <dia:int val="45"/>
      </dia:attribute>
      <dia:connections>
        <dia:connection handle="0" to="O1" connection="11"/>
        <dia:connection handle="1" to="O1" connection="15"/>
      </dia:connections>
    </dia:object>
    <dia:object type="Flowchart - Box" version="0" id="O7">
      <dia:attribute name="obj_pos">
        <dia:point val="10,5"/>
      </dia:attribute>
      <dia:attribute name="obj_bb">
        <dia:rectangle val="9.95,4.95;15.05,9.05"/>
      </dia:attribute>
      <dia:attribute name="elem_corner">
        <dia:point val="10,5"/>
      </dia:attribute>
      <dia:attribute name="elem_width">
        <dia:real val="5"/>
      </dia:attribute>
      <dia:attribute name="elem_height">
        <dia:real val="4"/>
      </dia:attribute>
      <dia:attribute name="show_background">
        <dia:boolean val="true"/>
      </dia:attribute>
      <dia:attribute name="padding">
        <dia:real val="0.5"/>
      </dia:attribute>
      <dia:attribute name="text">
        <dia:composite type="text">
          <dia:attribute name="string">
            <dia:string>#Cortex
M4#</dia:string>
          </dia:attribute>
          <dia:attribute name="font">
            <dia:font family="sans" style="80" name="Helvetica-Bold"/>
          </dia:attribute>
          <dia:attribute name="height">
            <dia:real val="0.80000000000000004"/>
          </dia:attribute>
          <dia:attribute name="pos">
            <dia:point val="12.5,6.795"/>
          </dia:attribute>
          <dia:attribute name="color">
            <dia:color val="#800080"/>
          </dia:attribute>
          <dia:attribute name="alignment">
            <dia:enum val="1"/>
          </dia:attribute>
        </dia:composite>
      </dia:attribute>
    </dia:object>
    <dia:object type="Standard - Line" version="0" id="O8">
      <dia:attribute name="obj_pos">
        <dia:point val="10,9"/>
      </dia:attribute>
      <dia:attribute name="obj_bb">
        <dia:rectangle val="9.95,8.95;15.05,9.05"/>
      </dia:attribute>
      <dia:attribute name="conn_endpoints">
        <dia:point val="10,9"/>
        <dia:point val="15,9"/>
      </dia:attribute>
      <dia:attribute name="numcp">
        <dia:int val="4"/>
      </dia:attribute>
      <dia:connections>
        <dia:connection handle="0" to="O7" connection="11"/>
        <dia:connection handle="1" to="O7" connection="15"/>
      </dia:connections>
    </dia:object>
    <dia:object type="Standard - Line" version="0" id="O9">
      <dia:attribute name="obj_pos">
        <dia:point val="11,9"/>
      </dia:attribute>
      <dia:attribute name="obj_bb">
        <dia:rectangle val="10.6434,8.94989;11.367,12.0618"/>
      </dia:attribute>
      <dia:attribute name="conn_endpoints">
        <dia:point val="11,9"/>
        <dia:point val="11.0065,11.95"/>
      </dia:attribute>
      <dia:attribute name="numcp">
        <dia:int val="1"/>
      </dia:attribute>
      <dia:attribute name="end_arrow">
        <dia:enum val="22"/>
      </dia:attribute>
      <dia:attribute name="end_arrow_length">
        <dia:real val="0.5"/>
      </dia:attribute>
      <dia:attribute name="end_arrow_width">
        <dia:real val="0.5"/>
      </dia:attribute>
      <dia:connections>
        <dia:connection handle="0" to="O8" connection="0"/>
        <dia:connection handle="1" to="O2" connection="1"/>
      </dia:connections>
    </dia:object>
    <dia:object type="Standard - Line" version="0" id="O10">
      <dia:attribute name="obj_pos">
        <dia:point val="14,9"/>
      </dia:attribute>
      <dia:attribute name="obj_bb">
        <dia:rectangle val="13.6511,8.94972;14.3747,12.0618"/>
      </dia:attribute>
      <dia:attribute name="conn_endpoints">
        <dia:point val="14,9"/>
        <dia:point val="14.0163,11.95"/>
      </dia:attribute>
      <dia:attribute name="numcp">
        <dia:int val="1"/>
      </dia:attribute>
      <dia:attribute name="end_arrow">
        <dia:enum val="22"/>
      </dia:attribute>
      <dia:attribute name="end_arrow_length">
        <dia:real val="0.5"/>
      </dia:attribute>
      <dia:attribute name="end_arrow_width">
        <dia:real val="0.5"/>
      </dia:attribute>
      <dia:connections>
        <dia:connection handle="0" to="O8" connection="3"/>
        <dia:connection handle="1" to="O2" connection="4"/>
      </dia:connections>
    </dia:object>
    <dia:object type="Flowchart - Box" version="0" id="O11">
      <dia:attribute name="obj_pos">
        <dia:point val="9,17"/>
      </dia:attribute>
      <dia:attribute name="obj_bb">
        <dia:rectangle val="8.95,16.95;13.05,18.95"/>
      </dia:attribute>
      <dia:attribute name="elem_corner">
        <dia:point val="9,17"/>
      </dia:attribute>
      <dia:attribute name="elem_width">
        <dia:real val="4"/>
      </dia:attribute>
      <dia:attribute name="elem_height">
        <dia:real val="1.9000000000000001"/>
      </dia:attribute>
      <dia:attribute name="show_background">
        <dia:boolean val="true"/>
      </dia:attribute>
      <dia:attribute name="padding">
        <dia:real val="0.5"/>
      </dia:attribute>
      <dia:attribute name="text">
        <dia:composite type="text">
          <dia:attribute name="string">
            <dia:string>#splitter#</dia:string>
          </dia:attribute>
          <dia:attribute name="font">
            <dia:font family="sans" style="80" name="Helvetica-Bold"/>
          </dia:attribute>
          <dia:attribute name="height">
            <dia:real val="0.80000000000000004"/>
          </dia:attribute>
          <dia:attribute name="pos">
            <dia:point val="11,18.145"/>
          </dia:attribute>
          <dia:attribute name="color">
            <dia:color val="#a52a2a"/>
          </dia:attribute>
          <dia:attribute name="alignment">
            <dia:enum val="1"/>
          </dia:attribute>
        </dia:composite>
      </dia:attribute>
    </dia:object>
    <dia:object type="Standard - Line" version="0" id="O12">
      <dia:attribute name="obj_pos">
        <dia:point val="11.0065,14.95"/>
      </dia:attribute>
      <dia:attribute name="obj_bb">
        <dia:rectangle val="10.6401,14.8998;11.3637,17.1118"/>
      </dia:attribute>
      <dia:attribute name="conn_endpoints">
        <dia:point val="11.0065,14.95"/>
        <dia:point val="11,17"/>
      </dia:attribute>
      <dia:attribute name="numcp">
        <dia:int val="1"/>
      </dia:attribute>
      <dia:attribute name="end_arrow">
        <dia:enum val="22"/>
      </dia:attribute>
      <dia:attribute name="end_arrow_length">
        <dia:real val="0.5"/>
      </dia:attribute>
      <dia:attribute name="end_arrow_width">
        <dia:real val="0.5"/>
      </dia:attribute>
      <dia:connections>
        <dia:connection handle="0" to="O6" connection="1"/>
        <dia:connection handle="1" to="O11" connection="2"/>
      </dia:connections>
    </dia:object>
    <dia:object type="Standard - ZigZagLine" version="1" id="O13">
      <dia:attribute name="obj_pos">
        <dia:point val="10,18.9"/>
      </dia:attribute>
      <dia:attribute name="obj_bb">
        <dia:rectangle val="6.95,6.6382;10.1118,21.05"/>
      </dia:attribute>
      <dia:attribute name="orth_points">
        <dia:point val="10,18.9"/>
        <dia:point val="10,21"/>
        <dia:point val="7,21"/>
        <dia:point val="7,7"/>
        <dia:point val="10,7"/>
        <dia:point val="10,7"/>
      </dia:attribute>
      <dia:attribute name="orth_orient">
        <dia:enum val="1"/>
        <dia:enum val="0"/>
        <dia:enum val="1"/>
        <dia:enum val="0"/>
        <dia:enum val="1"/>
      </dia:attribute>
      <dia:attribute name="autorouting">
        <dia:boolean val="false"/>
      </dia:attribute>
      <dia:attribute name="end_arrow">
        <dia:enum val="22"/>
      </dia:attribute>
      <dia:attribute name="end_arrow_length">
        <dia:real val="0.5"/>
      </dia:attribute>
      <dia:attribute name="end_arrow_width">
        <dia:real val="0.5"/>
      </dia:attribute>
      <dia:connections>
        <dia:connection handle="0" to="O11" connection="12"/>
        <dia:connection handle="1" to="O7" connection="7"/>
      </dia:connections>
    </dia:object>
    <dia:object type="Flowchart - Box" version="0" id="O14">
      <dia:attribute name="obj_pos">
        <dia:point val="10,22"/>
      </dia:attribute>
      <dia:attribute name="obj_bb">
        <dia:rectangle val="9.95,21.95;14.05,24.05"/>
      </dia:attribute>
      <dia:attribute name="elem_corner">
        <dia:point val="10,22"/>
      </dia:attribute>
      <dia:attribute name="elem_width">
        <dia:real val="4"/>
      </dia:attribute>
      <dia:attribute name="elem_height">
        <dia:real val="2"/>
      </dia:attribute>
      <dia:attribute name="border_width">
        <dia:real val="0.10000000149011612"/>
      </dia:attribute>
      <dia:attribute name="show_background">
        <dia:boolean val="true"/>
      </dia:attribute>
      <dia:attribute name="padding">
        <dia:real val="0.5"/>
      </dia:attribute>
      <dia:attribute name="text">
        <dia:composite type="text">
          <dia:attribute name="string">
            <dia:string>#AIPS-0#</dia:string>
          </dia:attribute>
          <dia:attribute name="font">
            <dia:font family="sans" style="80" name="Helvetica-Bold"/>
          </dia:attribute>
          <dia:attribute name="height">
            <dia:real val="0.80000000000000004"/>
          </dia:attribute>
          <dia:attribute name="pos">
            <dia:point val="12,23.195"/>
          </dia:attribute>
          <dia:attribute name="color">
            <dia:color val="#a52a2a"/>
          </dia:attribute>
          <dia:attribute name="alignment">
            <dia:enum val="1"/>
          </dia:attribute>
        </dia:composite>
      </dia:attribute>
    </dia:object>
    <dia:object type="Standard - Line" version="0" id="O15">
      <dia:attribute name="obj_pos">
        <dia:point val="12,18.9"/>
      </dia:attribute>
      <dia:attribute name="obj_bb">
        <dia:rectangle val="11.6382,18.85;12.3618,22.1118"/>
      </dia:attribute>
      <dia:attribute name="conn_endpoints">
        <dia:point val="12,18.9"/>
        <dia:point val="12,22"/>
      </dia:attribute>
      <dia:attribute name="numcp">
        <dia:int val="1"/>
      </dia:attribute>
      <dia:attribute name="end_arrow">
        <dia:enum val="22"/>
      </dia:attribute>
      <dia:attribute name="end_arrow_length">
        <dia:real val="0.5"/>
      </dia:attribute>
      <dia:attribute name="end_arrow_width">
        <dia:real val="0.5"/>
      </dia:attribute>
      <dia:connections>
        <dia:connection handle="0" to="O11" connection="14"/>
        <dia:connection handle="1" to="O14" connection="2"/>
      </dia:connections>
    </dia:object>
    <dia:object type="Flowchart - Box" version="0" id="O16">
      <dia:attribute name="obj_pos">
        <dia:point val="18,5"/>
      </dia:attribute>
      <dia:attribute name="obj_bb">
        <dia:rectangle val="17.95,4.95;22.05,9.05"/>
      </dia:attribute>
      <dia:attribute name="elem_corner">
        <dia:point val="18,5"/>
      </dia:attribute>
      <dia:attribute name="elem_width">
        <dia:real val="4"/>
      </dia:attribute>
      <dia:attribute name="elem_height">
        <dia:real val="4"/>
      </dia:attribute>
      <dia:attribute name="show_background">
        <dia:boolean val="true"/>
      </dia:attribute>
      <dia:attribute name="padding">
        <dia:real val="0.5"/>
      </dia:attribute>
      <dia:attribute name="text">
        <dia:composite type="text">
          <dia:attribute name="string">
            <dia:string>#Cortex
A7#</dia:string>
          </dia:attribute>
          <dia:attribute name="font">
            <dia:font family="sans" style="80" name="Helvetica-Bold"/>
          </dia:attribute>
          <dia:attribute name="height">
            <dia:real val="0.80000000000000004"/>
          </dia:attribute>
          <dia:attribute name="pos">
            <dia:point val="20,6.795"/>
          </dia:attribute>
          <dia:attribute name="color">
            <dia:color val="#800080"/>
          </dia:attribute>
          <dia:attribute name="alignment">
            <dia:enum val="1"/>
          </dia:attribute>
        </dia:composite>
      </dia:attribute>
    </dia:object>
    <dia:object type="Flowchart - Box" version="0" id="O17">
      <dia:attribute name="obj_pos">
        <dia:point val="19,4"/>
      </dia:attribute>
      <dia:attribute name="obj_bb">
        <dia:rectangle val="18.95,3.95;23.05,8.05"/>
      </dia:attribute>
      <dia:attribute name="elem_corner">
        <dia:point val="19,4"/>
      </dia:attribute>
      <dia:attribute name="elem_width">
        <dia:real val="4"/>
      </dia:attribute>
      <dia:attribute name="elem_height">
        <dia:real val="4"/>
      </dia:attribute>
      <dia:attribute name="show_background">
        <dia:boolean val="true"/>
      </dia:attribute>
      <dia:attribute name="padding">
        <dia:real val="0.5"/>
      </dia:attribute>
      <dia:attribute name="text">
        <dia:composite type="text">
          <dia:attribute name="string">
            <dia:string>#Cortex
A7#</dia:string>
          </dia:attribute>
          <dia:attribute name="font">
            <dia:font family="sans" style="80" name="Helvetica-Bold"/>
          </dia:attribute>
          <dia:attribute name="height">
            <dia:real val="0.80000000000000004"/>
          </dia:attribute>
          <dia:attribute name="pos">
            <dia:point val="21,5.795"/>
          </dia:attribute>
          <dia:attribute name="color">
            <dia:color val="#800080"/>
          </dia:attribute>
          <dia:attribute name="alignment">
            <dia:enum val="1"/>
          </dia:attribute>
        </dia:composite>
      </dia:attribute>
    </dia:object>
    <dia:object type="Standard - Line" version="0" id="O18">
      <dia:attribute name="obj_pos">
        <dia:point val="20,9"/>
      </dia:attribute>
      <dia:attribute name="obj_bb">
        <dia:rectangle val="19.6653,8.9494;20.3888,12.0006"/>
      </dia:attribute>
      <dia:attribute name="conn_endpoints">
        <dia:point val="20,9"/>
        <dia:point val="20.0359,11.95"/>
      </dia:attribute>
      <dia:attribute name="numcp">
        <dia:int val="1"/>
      </dia:attribute>
      <dia:attribute name="start_arrow">
        <dia:enum val="1"/>
      </dia:attribute>
      <dia:attribute name="start_arrow_length">
        <dia:real val="0.5"/>
      </dia:attribute>
      <dia:attribute name="start_arrow_width">
        <dia:real val="0.5"/>
      </dia:attribute>
      <dia:attribute name="end_arrow">
        <dia:enum val="22"/>
      </dia:attribute>
      <dia:attribute name="end_arrow_length">
        <dia:real val="0.5"/>
      </dia:attribute>
      <dia:attribute name="end_arrow_width">
        <dia:real val="0.5"/>
      </dia:attribute>
      <dia:connections>
        <dia:connection handle="0" to="O16" connection="13"/>
        <dia:connection handle="1" to="O2" connection="10"/>
      </dia:connections>
    </dia:object>
    <dia:object type="Standard - Text" version="1" id="O19">
      <dia:attribute name="obj_pos">
        <dia:point val="20,13"/>
      </dia:attribute>
      <dia:attribute name="obj_bb">
        <dia:rectangle val="20,12.405;20.8575,13.15"/>
      </dia:attribute>
      <dia:attribute name="text">
        <dia:composite type="text">
          <dia:attribute name="string">
            <dia:string>#Mi#</dia:string>
          </dia:attribute>
          <dia:attribute name="font">
            <dia:font family="sans" style="80" name="Helvetica-Bold"/>
          </dia:attribute>
          <dia:attribute name="height">
            <dia:real val="0.80000000000000004"/>
          </dia:attribute>
          <dia:attribute name="pos">
            <dia:point val="20,13"/>
          </dia:attribute>
          <dia:attribute name="color">
            <dia:color val="#0000ff"/>
          </dia:attribute>
          <dia:attribute name="alignment">
            <dia:enum val="0"/>
          </dia:attribute>
        </dia:composite>
      </dia:attribute>
      <dia:attribute name="valign">
        <dia:enum val="3"/>
      </dia:attribute>
    </dia:object>
    <dia:object type="Flowchart - Box" version="0" id="O20">
      <dia:attribute name="obj_pos">
        <dia:point val="26,5"/>
      </dia:attribute>
      <dia:attribute name="obj_bb">
        <dia:rectangle val="25.95,4.95;30.05,9.05"/>
      </dia:attribute>
      <dia:attribute name="elem_corner">
        <dia:point val="26,5"/>
      </dia:attribute>
      <dia:attribute name="elem_width">
        <dia:real val="4"/>
      </dia:attribute>
      <dia:attribute name="elem_height">
        <dia:real val="4"/>
      </dia:attribute>
      <dia:attribute name="show_background">
        <dia:boolean val="true"/>
      </dia:attribute>
      <dia:attribute name="padding">
        <dia:real val="0.5"/>
      </dia:attribute>
      <dia:attribute name="text">
        <dia:composite type="text">
          <dia:attribute name="string">
            <dia:string>#DMA#</dia:string>
          </dia:attribute>
          <dia:attribute name="font">
            <dia:font family="sans" style="80" name="Helvetica-Bold"/>
          </dia:attribute>
          <dia:attribute name="height">
            <dia:real val="0.80000000000000004"/>
          </dia:attribute>
          <dia:attribute name="pos">
            <dia:point val="28,7.195"/>
          </dia:attribute>
          <dia:attribute name="color">
            <dia:color val="#800080"/>
          </dia:attribute>
          <dia:attribute name="alignment">
            <dia:enum val="1"/>
          </dia:attribute>
        </dia:composite>
      </dia:attribute>
    </dia:object>
    <dia:object type="Standard - Line" version="0" id="O21">
      <dia:attribute name="obj_pos">
        <dia:point val="28,9"/>
      </dia:attribute>
      <dia:attribute name="obj_bb">
        <dia:rectangle val="27.6535,8.94896;28.4085,12.001"/>
      </dia:attribute>
      <dia:attribute name="conn_endpoints">
        <dia:point val="28,9"/>
        <dia:point val="28.062,11.95"/>
      </dia:attribute>
      <dia:attribute name="numcp">
        <dia:int val="2"/>
      </dia:attribute>
      <dia:attribute name="start_arrow">
        <dia:enum val="22"/>
      </dia:attribute>
      <dia:attribute name="start_arrow_length">
        <dia:real val="0.5"/>
      </dia:attribute>
      <dia:attribute name="start_arrow_width">
        <dia:real val="0.5"/>
      </dia:attribute>
      <dia:attribute name="end_arrow">
        <dia:enum val="22"/>
      </dia:attribute>
      <dia:attribute name="end_arrow_length">
        <dia:real val="0.5"/>
      </dia:attribute>
      <dia:attribute name="end_arrow_width">
        <dia:real val="0.5"/>
      </dia:attribute>
      <dia:connections>
        <dia:connection handle="0" to="O20" connection="13"/>
        <dia:connection handle="1" to="O2" connection="18"/>
      </dia:connections>
    </dia:object>
    <dia:object type="Standard - Text" version="1" id="O22">
      <dia:attribute name="obj_pos">
        <dia:point val="28,13"/>
      </dia:attribute>
      <dia:attribute name="obj_bb">
        <dia:rectangle val="28,12.405;28.8575,13.15"/>
      </dia:attribute>
      <dia:attribute name="text">
        <dia:composite type="text">
          <dia:attribute name="string">
            <dia:string>#Mj#</dia:string>
          </dia:attribute>
          <dia:attribute name="font">
            <dia:font family="sans" style="80" name="Helvetica-Bold"/>
          </dia:attribute>
          <dia:attribute name="height">
            <dia:real val="0.80000000000000004"/>
          </dia:attribute>
          <dia:attribute name="pos">
            <dia:point val="28,13"/>
          </dia:attribute>
          <dia:attribute name="color">
            <dia:color val="#0000ff"/>
          </dia:attribute>
          <dia:attribute name="alignment">
            <dia:enum val="0"/>
          </dia:attribute>
        </dia:composite>
      </dia:attribute>
      <dia:attribute name="valign">
        <dia:enum val="3"/>
      </dia:attribute>
    </dia:object>
    <dia:object type="Flowchart - Box" version="0" id="O23">
      <dia:attribute name="obj_pos">
        <dia:point val="33,5"/>
      </dia:attribute>
      <dia:attribute name="obj_bb">
        <dia:rectangle val="32.95,4.95;37.05,9.05"/>
      </dia:attribute>
      <dia:attribute name="elem_corner">
        <dia:point val="33,5"/>
      </dia:attribute>
      <dia:attribute name="elem_width">
        <dia:real val="4"/>
      </dia:attribute>
      <dia:attribute name="elem_height">
        <dia:real val="4"/>
      </dia:attribute>
      <dia:attribute name="show_background">
        <dia:boolean val="true"/>
      </dia:attribute>
      <dia:attribute name="padding">
        <dia:real val="0.5"/>
      </dia:attribute>
      <dia:attribute name="text">
        <dia:composite type="text">
          <dia:attribute name="string">
            <dia:string>#CCM#</dia:string>
          </dia:attribute>
          <dia:attribute name="font">
            <dia:font family="sans" style="80" name="Helvetica-Bold"/>
          </dia:attribute>
          <dia:attribute name="height">
            <dia:real val="0.80000000000000004"/>
          </dia:attribute>
          <dia:attribute name="pos">
            <dia:point val="35,7.195"/>
          </dia:attribute>
          <dia:attribute name="color">
            <dia:color val="#800080"/>
          </dia:attribute>
          <dia:attribute name="alignment">
            <dia:enum val="1"/>
          </dia:attribute>
        </dia:composite>
      </dia:attribute>
    </dia:object>
    <dia:object type="Standard - Line" version="0" id="O24">
      <dia:attribute name="obj_pos">
        <dia:point val="35,9"/>
      </dia:attribute>
      <dia:attribute name="obj_bb">
        <dia:rectangle val="34.6591,8.94858;35.4256,12.0014"/>
      </dia:attribute>
      <dia:attribute name="conn_endpoints">
        <dia:point val="35,9"/>
        <dia:point val="35.0848,11.95"/>
      </dia:attribute>
      <dia:attribute name="numcp">
        <dia:int val="1"/>
      </dia:attribute>
      <dia:attribute name="start_arrow">
        <dia:enum val="22"/>
      </dia:attribute>
      <dia:attribute name="start_arrow_length">
        <dia:real val="0.5"/>
      </dia:attribute>
      <dia:attribute name="start_arrow_width">
        <dia:real val="0.5"/>
      </dia:attribute>
      <dia:attribute name="end_arrow">
        <dia:enum val="22"/>
      </dia:attribute>
      <dia:attribute name="end_arrow_length">
        <dia:real val="0.5"/>
      </dia:attribute>
      <dia:attribute name="end_arrow_width">
        <dia:real val="0.5"/>
      </dia:attribute>
      <dia:connections>
        <dia:connection handle="0" to="O23" connection="13"/>
        <dia:connection handle="1" to="O2" connection="25"/>
      </dia:connections>
    </dia:object>
    <dia:object type="Flowchart - Box" version="0" id="O25">
      <dia:attribute name="obj_pos">
        <dia:point val="40,5"/>
      </dia:attribute>
      <dia:attribute name="obj_bb">
        <dia:rectangle val="39.95,4.95;44.05,9.05"/>
      </dia:attribute>
      <dia:attribute name="elem_corner">
        <dia:point val="40,5"/>
      </dia:attribute>
      <dia:attribute name="elem_width">
        <dia:real val="4"/>
      </dia:attribute>
      <dia:attribute name="elem_height">
        <dia:real val="4"/>
      </dia:attribute>
      <dia:attribute name="show_background">
        <dia:boolean val="true"/>
      </dia:attribute>
      <dia:attribute name="padding">
        <dia:real val="0.5"/>
      </dia:attribute>
      <dia:attribute name="text">
        <dia:composite type="text">
          <dia:attribute name="string">
            <dia:string>#PXP#</dia:string>
          </dia:attribute>
          <dia:attribute name="font">
            <dia:font family="sans" style="80" name="Helvetica-Bold"/>
          </dia:attribute>
          <dia:attribute name="height">
            <dia:real val="0.80000000000000004"/>
          </dia:attribute>
          <dia:attribute name="pos">
            <dia:point val="42,7.195"/>
          </dia:attribute>
          <dia:attribute name="color">
            <dia:color val="#800080"/>
          </dia:attribute>
          <dia:attribute name="alignment">
            <dia:enum val="1"/>
          </dia:attribute>
        </dia:composite>
      </dia:attribute>
    </dia:object>
    <dia:object type="Flowchart - Box" version="0" id="O26">
      <dia:attribute name="obj_pos">
        <dia:point val="46.7675,5"/>
      </dia:attribute>
      <dia:attribute name="obj_bb">
        <dia:rectangle val="46.7175,4.95;51.2825,9.05"/>
      </dia:attribute>
      <dia:attribute name="elem_corner">
        <dia:point val="46.7675,5"/>
      </dia:attribute>
      <dia:attribute name="elem_width">
        <dia:real val="4.4649999999999999"/>
      </dia:attribute>
      <dia:attribute name="elem_height">
        <dia:real val="4"/>
      </dia:attribute>
      <dia:attribute name="show_background">
        <dia:boolean val="true"/>
      </dia:attribute>
      <dia:attribute name="padding">
        <dia:real val="0.5"/>
      </dia:attribute>
      <dia:attribute name="text">
        <dia:composite type="text">
          <dia:attribute name="string">
            <dia:string>#Master M#</dia:string>
          </dia:attribute>
          <dia:attribute name="font">
            <dia:font family="sans" style="80" name="Helvetica-Bold"/>
          </dia:attribute>
          <dia:attribute name="height">
            <dia:real val="0.80000000000000004"/>
          </dia:attribute>
          <dia:attribute name="pos">
            <dia:point val="49,7.195"/>
          </dia:attribute>
          <dia:attribute name="color">
            <dia:color val="#800080"/>
          </dia:attribute>
          <dia:attribute name="alignment">
            <dia:enum val="1"/>
          </dia:attribute>
        </dia:composite>
      </dia:attribute>
    </dia:object>
    <dia:object type="Standard - Line" version="0" id="O27">
      <dia:attribute name="obj_pos">
        <dia:point val="42,9"/>
      </dia:attribute>
      <dia:attribute name="obj_bb">
        <dia:rectangle val="41.6648,8.94821;42.4428,12.0018"/>
      </dia:attribute>
      <dia:attribute name="conn_endpoints">
        <dia:point val="42,9"/>
        <dia:point val="42.1076,11.95"/>
      </dia:attribute>
      <dia:attribute name="numcp">
        <dia:int val="1"/>
      </dia:attribute>
      <dia:attribute name="start_arrow">
        <dia:enum val="22"/>
      </dia:attribute>
      <dia:attribute name="start_arrow_length">
        <dia:real val="0.5"/>
      </dia:attribute>
      <dia:attribute name="start_arrow_width">
        <dia:real val="0.5"/>
      </dia:attribute>
      <dia:attribute name="end_arrow">
        <dia:enum val="22"/>
      </dia:attribute>
      <dia:attribute name="end_arrow_length">
        <dia:real val="0.5"/>
      </dia:attribute>
      <dia:attribute name="end_arrow_width">
        <dia:real val="0.5"/>
      </dia:attribute>
      <dia:connections>
        <dia:connection handle="0" to="O25" connection="13"/>
        <dia:connection handle="1" to="O2" connection="32"/>
      </dia:connections>
    </dia:object>
    <dia:object type="Standard - Line" version="0" id="O28">
      <dia:attribute name="obj_pos">
        <dia:point val="49,9"/>
      </dia:attribute>
      <dia:attribute name="obj_bb">
        <dia:rectangle val="48.6705,8.94784;49.4599,12.0022"/>
      </dia:attribute>
      <dia:attribute name="conn_endpoints">
        <dia:point val="49,9"/>
        <dia:point val="49.1304,11.95"/>
      </dia:attribute>
      <dia:attribute name="numcp">
        <dia:int val="1"/>
      </dia:attribute>
      <dia:attribute name="start_arrow">
        <dia:enum val="22"/>
      </dia:attribute>
      <dia:attribute name="start_arrow_length">
        <dia:real val="0.5"/>
      </dia:attribute>
      <dia:attribute name="start_arrow_width">
        <dia:real val="0.5"/>
      </dia:attribute>
      <dia:attribute name="end_arrow">
        <dia:enum val="22"/>
      </dia:attribute>
      <dia:attribute name="end_arrow_length">
        <dia:real val="0.5"/>
      </dia:attribute>
      <dia:attribute name="end_arrow_width">
        <dia:real val="0.5"/>
      </dia:attribute>
      <dia:connections>
        <dia:connection handle="0" to="O26" connection="13"/>
        <dia:connection handle="1" to="O2" connection="39"/>
      </dia:connections>
    </dia:object>
    <dia:object type="Standard - Text" version="1" id="O29">
      <dia:attribute name="obj_pos">
        <dia:point val="35,13"/>
      </dia:attribute>
      <dia:attribute name="obj_bb">
        <dia:rectangle val="35,12.405;36.0625,13.15"/>
      </dia:attribute>
      <dia:attribute name="text">
        <dia:composite type="text">
          <dia:attribute name="string">
            <dia:string>#Mk#</dia:string>
          </dia:attribute>
          <dia:attribute name="font">
            <dia:font family="sans" style="80" name="Helvetica-Bold"/>
          </dia:attribute>
          <dia:attribute name="height">
            <dia:real val="0.80000000000000004"/>
          </dia:attribute>
          <dia:attribute name="pos">
            <dia:point val="35,13"/>
          </dia:attribute>
          <dia:attribute name="color">
            <dia:color val="#0000ff"/>
          </dia:attribute>
          <dia:attribute name="alignment">
            <dia:enum val="0"/>
          </dia:attribute>
        </dia:composite>
      </dia:attribute>
      <dia:attribute name="valign">
        <dia:enum val="3"/>
      </dia:attribute>
    </dia:object>
    <dia:object type="Standard - Text" version="1" id="O30">
      <dia:attribute name="obj_pos">
        <dia:point val="49,13"/>
      </dia:attribute>
      <dia:attribute name="obj_bb">
        <dia:rectangle val="49,12.405;50.305,13.15"/>
      </dia:attribute>
      <dia:attribute name="text">
        <dia:composite type="text">
          <dia:attribute name="string">
            <dia:string>#Mm#</dia:string>
          </dia:attribute>
          <dia:attribute name="font">
            <dia:font family="sans" style="80" name="Helvetica-Bold"/>
          </dia:attribute>
          <dia:attribute name="height">
            <dia:real val="0.80000000000000004"/>
          </dia:attribute>
          <dia:attribute name="pos">
            <dia:point val="49,13"/>
          </dia:attribute>
          <dia:attribute name="color">
            <dia:color val="#0000ff"/>
          </dia:attribute>
          <dia:attribute name="alignment">
            <dia:enum val="0"/>
          </dia:attribute>
        </dia:composite>
      </dia:attribute>
      <dia:attribute name="valign">
        <dia:enum val="3"/>
      </dia:attribute>
    </dia:object>
    <dia:object type="Standard - Text" version="1" id="O31">
      <dia:attribute name="obj_pos">
        <dia:point val="42,13"/>
      </dia:attribute>
      <dia:attribute name="obj_bb">
        <dia:rectangle val="42,12.405;42.8575,13.15"/>
      </dia:attribute>
      <dia:attribute name="text">
        <dia:composite type="text">
          <dia:attribute name="string">
            <dia:string>#Ml#</dia:string>
          </dia:attribute>
          <dia:attribute name="font">
            <dia:font family="sans" style="80" name="Helvetica-Bold"/>
          </dia:attribute>
          <dia:attribute name="height">
            <dia:real val="0.80000000000000004"/>
          </dia:attribute>
          <dia:attribute name="pos">
            <dia:point val="42,13"/>
          </dia:attribute>
          <dia:attribute name="color">
            <dia:color val="#0000ff"/>
          </dia:attribute>
          <dia:attribute name="alignment">
            <dia:enum val="0"/>
          </dia:attribute>
        </dia:composite>
      </dia:attribute>
      <dia:attribute name="valign">
        <dia:enum val="3"/>
      </dia:attribute>
    </dia:object>
    <dia:object type="Standard - Text" version="1" id="O32">
      <dia:attribute name="obj_pos">
        <dia:point val="11,14"/>
      </dia:attribute>
      <dia:attribute name="obj_bb">
        <dia:rectangle val="11,13.405;11.905,14.15"/>
      </dia:attribute>
      <dia:attribute name="text">
        <dia:composite type="text">
          <dia:attribute name="string">
            <dia:string>#S0#</dia:string>
          </dia:attribute>
          <dia:attribute name="font">
            <dia:font family="sans" style="80" name="Helvetica-Bold"/>
          </dia:attribute>
          <dia:attribute name="height">
            <dia:real val="0.80000000000000004"/>
          </dia:attribute>
          <dia:attribute name="pos">
            <dia:point val="11,14"/>
          </dia:attribute>
          <dia:attribute name="color">
            <dia:color val="#ff0000"/>
          </dia:attribute>
          <dia:attribute name="alignment">
            <dia:enum val="0"/>
          </dia:attribute>
        </dia:composite>
      </dia:attribute>
      <dia:attribute name="valign">
        <dia:enum val="3"/>
      </dia:attribute>
    </dia:object>
    <dia:object type="Flowchart - Box" version="0" id="O33">
      <dia:attribute name="obj_pos">
        <dia:point val="15,17"/>
      </dia:attribute>
      <dia:attribute name="obj_bb">
        <dia:rectangle val="14.95,16.95;19.05,19.05"/>
      </dia:attribute>
      <dia:attribute name="elem_corner">
        <dia:point val="15,17"/>
      </dia:attribute>
      <dia:attribute name="elem_width">
        <dia:real val="4"/>
      </dia:attribute>
      <dia:attribute name="elem_height">
        <dia:real val="2"/>
      </dia:attribute>
      <dia:attribute name="border_width">
        <dia:real val="0.10000000149011612"/>
      </dia:attribute>
      <dia:attribute name="show_background">
        <dia:boolean val="true"/>
      </dia:attribute>
      <dia:attribute name="padding">
        <dia:real val="0.5"/>
      </dia:attribute>
      <dia:attribute name="text">
        <dia:composite type="text">
          <dia:attribute name="string">
            <dia:string>#AIPS-1#</dia:string>
          </dia:attribute>
          <dia:attribute name="font">
            <dia:font family="sans" style="80" name="Helvetica-Bold"/>
          </dia:attribute>
          <dia:attribute name="height">
            <dia:real val="0.80000000000000004"/>
          </dia:attribute>
          <dia:attribute name="pos">
            <dia:point val="17,18.195"/>
          </dia:attribute>
          <dia:attribute name="color">
            <dia:color val="#a52a2a"/>
          </dia:attribute>
          <dia:attribute name="alignment">
            <dia:enum val="1"/>
          </dia:attribute>
        </dia:composite>
      </dia:attribute>
    </dia:object>
    <dia:object type="Standard - Line" version="0" id="O34">
      <dia:attribute name="obj_pos">
        <dia:point val="17.0261,14.95"/>
      </dia:attribute>
      <dia:attribute name="obj_bb">
        <dia:rectangle val="16.646,14.8994;17.3696,17.1118"/>
      </dia:attribute>
      <dia:attribute name="conn_endpoints">
        <dia:point val="17.0261,14.95"/>
        <dia:point val="17,17"/>
      </dia:attribute>
      <dia:attribute name="numcp">
        <dia:int val="1"/>
      </dia:attribute>
      <dia:attribute name="end_arrow">
        <dia:enum val="22"/>
      </dia:attribute>
      <dia:attribute name="end_arrow_length">
        <dia:real val="0.5"/>
      </dia:attribute>
      <dia:attribute name="end_arrow_width">
        <dia:real val="0.5"/>
      </dia:attribute>
      <dia:connections>
        <dia:connection handle="0" to="O6" connection="7"/>
        <dia:connection handle="1" to="O33" connection="2"/>
      </dia:connections>
    </dia:object>
    <dia:object type="Flowchart - Box" version="0" id="O35">
      <dia:attribute name="obj_pos">
        <dia:point val="23,17"/>
      </dia:attribute>
      <dia:attribute name="obj_bb">
        <dia:rectangle val="22.95,16.95;27.05,19.05"/>
      </dia:attribute>
      <dia:attribute name="elem_corner">
        <dia:point val="23,17"/>
      </dia:attribute>
      <dia:attribute name="elem_width">
        <dia:real val="4"/>
      </dia:attribute>
      <dia:attribute name="elem_height">
        <dia:real val="2"/>
      </dia:attribute>
      <dia:attribute name="border_width">
        <dia:real val="0.10000000149011612"/>
      </dia:attribute>
      <dia:attribute name="show_background">
        <dia:boolean val="true"/>
      </dia:attribute>
      <dia:attribute name="padding">
        <dia:real val="0.5"/>
      </dia:attribute>
      <dia:attribute name="text">
        <dia:composite type="text">
          <dia:attribute name="string">
            <dia:string>#AIPS-2#</dia:string>
          </dia:attribute>
          <dia:attribute name="font">
            <dia:font family="sans" style="80" name="Helvetica-Bold"/>
          </dia:attribute>
          <dia:attribute name="height">
            <dia:real val="0.80000000000000004"/>
          </dia:attribute>
          <dia:attribute name="pos">
            <dia:point val="25,18.195"/>
          </dia:attribute>
          <dia:attribute name="color">
            <dia:color val="#a52a2a"/>
          </dia:attribute>
          <dia:attribute name="alignment">
            <dia:enum val="1"/>
          </dia:attribute>
        </dia:composite>
      </dia:attribute>
    </dia:object>
    <dia:object type="Standard - Line" version="0" id="O36">
      <dia:attribute name="obj_pos">
        <dia:point val="25.0522,14.95"/>
      </dia:attribute>
      <dia:attribute name="obj_bb">
        <dia:rectangle val="24.6539,14.8987;25.3773,17.1118"/>
      </dia:attribute>
      <dia:attribute name="conn_endpoints">
        <dia:point val="25.0522,14.95"/>
        <dia:point val="25,17"/>
      </dia:attribute>
      <dia:attribute name="numcp">
        <dia:int val="1"/>
      </dia:attribute>
      <dia:attribute name="end_arrow">
        <dia:enum val="22"/>
      </dia:attribute>
      <dia:attribute name="end_arrow_length">
        <dia:real val="0.5"/>
      </dia:attribute>
      <dia:attribute name="end_arrow_width">
        <dia:real val="0.5"/>
      </dia:attribute>
      <dia:connections>
        <dia:connection handle="0" to="O6" connection="15"/>
        <dia:connection handle="1" to="O35" connection="2"/>
      </dia:connections>
    </dia:object>
    <dia:object type="Flowchart - Box" version="0" id="O37">
      <dia:attribute name="obj_pos">
        <dia:point val="33,17"/>
      </dia:attribute>
      <dia:attribute name="obj_bb">
        <dia:rectangle val="32.95,16.95;37.05,19.05"/>
      </dia:attribute>
      <dia:attribute name="elem_corner">
        <dia:point val="33,17"/>
      </dia:attribute>
      <dia:attribute name="elem_width">
        <dia:real val="4"/>
      </dia:attribute>
      <dia:attribute name="elem_height">
        <dia:real val="2"/>
      </dia:attribute>
      <dia:attribute name="border_width">
        <dia:real val="0.10000000149011612"/>
      </dia:attribute>
      <dia:attribute name="show_background">
        <dia:boolean val="true"/>
      </dia:attribute>
      <dia:attribute name="padding">
        <dia:real val="0.5"/>
      </dia:attribute>
      <dia:attribute name="text">
        <dia:composite type="text">
          <dia:attribute name="string">
            <dia:string>#AIPS-3#</dia:string>
          </dia:attribute>
          <dia:attribute name="font">
            <dia:font family="sans" style="80" name="Helvetica-Bold"/>
          </dia:attribute>
          <dia:attribute name="height">
            <dia:real val="0.80000000000000004"/>
          </dia:attribute>
          <dia:attribute name="pos">
            <dia:point val="35,18.195"/>
          </dia:attribute>
          <dia:attribute name="color">
            <dia:color val="#a52a2a"/>
          </dia:attribute>
          <dia:attribute name="alignment">
            <dia:enum val="1"/>
          </dia:attribute>
        </dia:composite>
      </dia:attribute>
    </dia:object>
    <dia:object type="Standard - Line" version="0" id="O38">
      <dia:attribute name="obj_pos">
        <dia:point val="35.0848,14.95"/>
      </dia:attribute>
      <dia:attribute name="obj_bb">
        <dia:rectangle val="34.6638,14.898;35.3868,17.1117"/>
      </dia:attribute>
      <dia:attribute name="conn_endpoints">
        <dia:point val="35.0848,14.95"/>
        <dia:point val="35,17"/>
      </dia:attribute>
      <dia:attribute name="numcp">
        <dia:int val="1"/>
      </dia:attribute>
      <dia:attribute name="end_arrow">
        <dia:enum val="22"/>
      </dia:attribute>
      <dia:attribute name="end_arrow_length">
        <dia:real val="0.5"/>
      </dia:attribute>
      <dia:attribute name="end_arrow_width">
        <dia:real val="0.5"/>
      </dia:attribute>
      <dia:connections>
        <dia:connection handle="0" to="O6" connection="25"/>
        <dia:connection handle="1" to="O37" connection="2"/>
      </dia:connections>
    </dia:object>
    <dia:object type="Standard - Text" version="1" id="O39">
      <dia:attribute name="obj_pos">
        <dia:point val="17,14"/>
      </dia:attribute>
      <dia:attribute name="obj_bb">
        <dia:rectangle val="17,13.405;17.905,14.15"/>
      </dia:attribute>
      <dia:attribute name="text">
        <dia:composite type="text">
          <dia:attribute name="string">
            <dia:string>#S1#</dia:string>
          </dia:attribute>
          <dia:attribute name="font">
            <dia:font family="sans" style="80" name="Helvetica-Bold"/>
          </dia:attribute>
          <dia:attribute name="height">
            <dia:real val="0.80000000000000004"/>
          </dia:attribute>
          <dia:attribute name="pos">
            <dia:point val="17,14"/>
          </dia:attribute>
          <dia:attribute name="color">
            <dia:color val="#ff0000"/>
          </dia:attribute>
          <dia:attribute name="alignment">
            <dia:enum val="0"/>
          </dia:attribute>
        </dia:composite>
      </dia:attribute>
      <dia:attribute name="valign">
        <dia:enum val="3"/>
      </dia:attribute>
    </dia:object>
    <dia:object type="Standard - Text" version="1" id="O40">
      <dia:attribute name="obj_pos">
        <dia:point val="35,14"/>
      </dia:attribute>
      <dia:attribute name="obj_bb">
        <dia:rectangle val="35,13.405;35.905,14.15"/>
      </dia:attribute>
      <dia:attribute name="text">
        <dia:composite type="text">
          <dia:attribute name="string">
            <dia:string>#S3#</dia:string>
          </dia:attribute>
          <dia:attribute name="font">
            <dia:font family="sans" style="80" name="Helvetica-Bold"/>
          </dia:attribute>
          <dia:attribute name="height">
            <dia:real val="0.80000000000000004"/>
          </dia:attribute>
          <dia:attribute name="pos">
            <dia:point val="35,14"/>
          </dia:attribute>
          <dia:attribute name="color">
            <dia:color val="#ff0000"/>
          </dia:attribute>
          <dia:attribute name="alignment">
            <dia:enum val="0"/>
          </dia:attribute>
        </dia:composite>
      </dia:attribute>
      <dia:attribute name="valign">
        <dia:enum val="3"/>
      </dia:attribute>
    </dia:object>
    <dia:object type="Standard - Text" version="1" id="O41">
      <dia:attribute name="obj_pos">
        <dia:point val="25,14"/>
      </dia:attribute>
      <dia:attribute name="obj_bb">
        <dia:rectangle val="25,13.405;25.905,14.15"/>
      </dia:attribute>
      <dia:attribute name="text">
        <dia:composite type="text">
          <dia:attribute name="string">
            <dia:string>#S2#</dia:string>
          </dia:attribute>
          <dia:attribute name="font">
            <dia:font family="sans" style="80" name="Helvetica-Bold"/>
          </dia:attribute>
          <dia:attribute name="height">
            <dia:real val="0.80000000000000004"/>
          </dia:attribute>
          <dia:attribute name="pos">
            <dia:point val="25,14"/>
          </dia:attribute>
          <dia:attribute name="color">
            <dia:color val="#ff0000"/>
          </dia:attribute>
          <dia:attribute name="alignment">
            <dia:enum val="0"/>
          </dia:attribute>
        </dia:composite>
      </dia:attribute>
      <dia:attribute name="valign">
        <dia:enum val="3"/>
      </dia:attribute>
    </dia:object>
  </dia:layer>
</dia:diagram>
